{
"name":"test_MvG3c",
"timeType":"time",
"synchronization":"none",
"description":"none",
"lastValidatedTime":0,
"endOfValidity":0,
"insertionTime":"2018-12-06T11:18:35.641+0000",
"modificationTime":"2018-12-06T11:18:35.641+0000",
"payloadSpec":"stave: Int32, eta: Int32, mag: Float, base: Float, free: Float"
}
 
